…
For the part A, I have used the corpus format. Now, I will use the tidytext format. 



```r
Trump_s<-tibble(line=1:length(Trump_speeches),text=Trump_speeches)
Trump_s
```

```
## # A tibble: 74 x 2
##     line text                                                             
##    <int> <chr>                                                            
##  1     1 "Trump: Wow. Whoa. That is some group of people. Thousands. So n~
##  2     2 " Good evening. Thank you very much. I speak to you today as a l~
##  3     3 "Thank you for the opportunity to speak to you, and thank you to~
##  4     4 "Thank you for joining me today. This was going to be a speech o~
##  5     5 "Today I'd like to share my thoughts about the stakes in this el~
##  6     6 "Thank you. I'd like to thank Chairman Jeff Miller for his leade~
##  7     7 "Thank you, everybody. Great honor. Great honor, thank you. This~
##  8     8 "Friends, delegates and fellow Americans: I humbly and gratefull~
##  9     9 "Donald Trump. So, it's been 235 days since crooked Hillary Clin~
## 10    10 "So how good is he? How good is he? [applause] Special. Special.~
## # ... with 64 more rows
```
…
```
## [1] 74  2
```
Now, let us tidy the data.


```r
tidy_speeches<-Trump_s%>% unnest_tokens(word,text)
tidy_speeches
```

```
## # A tibble: 235,237 x 2
##     line word     
##    <int> <chr>    
##  1     1 trump    
##  2     1 wow      
##  3     1 whoa     
##  4     1 that     
##  5     1 is       
##  6     1 some     
##  7     1 group    
##  8     1 of       
##  9     1 people   
## 10     1 thousands
## # ... with 235,227 more rows
```
…
Now, let us create a bigram of the Trump speeches. We will do so to get a deeper context in which the words were actually used. 


```r
Trump_bigrams<-Trump_s%>% unnest_tokens(bigram,text,token = "ngrams",n=2)
Trump_bigrams
```

```
## # A tibble: 235,163 x 2
##     line bigram          
##    <int> <chr>           
##  1     1 trump wow       
##  2     1 wow whoa        
##  3     1 whoa that       
##  4     1 that is         
##  5     1 is some         
##  6     1 some group      
##  7     1 group of        
##  8     1 of people       
##  9     1 people thousands
## 10     1 thousands so    
## # ... with 235,153 more rows
```
…
Now let us check the most common bigrams. 


```r
Trump_bigrams<-Trump_bigrams%>%count(bigram,sort = TRUE)
Trump_bigrams
```

```
## # A tibble: 76,867 x 2
##    bigram              n
##    <chr>           <int>
##  1 going to         1821
##  2 of the            987
##  3 we will           819
##  4 we are            710
##  5 in the            669
##  6 hillary clinton   663
##  7 our country       575
##  8 are going         558
##  9 to be             538
## 10 we have           473
## # ... with 76,857 more rows
```
We can see that there are still stop words in the bigrams which we should eliminate. 

For that, we will first split the bigrams into two words, eliminate the stop words and then reunite the words to form a bigram again. 



```r
library(tidyr)
Trump_bigrams_sep<-Trump_bigrams%>%separate(bigram,c("word1","word2"),sep = " ")
Trump_bigrams_sep
```

```
## # A tibble: 76,867 x 3
##    word1   word2       n
##  * <chr>   <chr>   <int>
##  1 going   to       1821
##  2 of      the       987
##  3 we      will      819
##  4 we      are       710
##  5 in      the       669
##  6 hillary clinton   663
##  7 our     country   575
##  8 are     going     558
##  9 to      be        538
## 10 we      have      473
## # ... with 76,857 more rows
```

```r
Trump_bigrams_sep<-Trump_bigrams_sep%>% filter(!word1 %in% stop_words$word)%>%filter(!word2 %in% stop_words$word)

Trump_bigrams_sep
```

```
## # A tibble: 14,257 x 3
##    word1     word2              n
##    <chr>     <chr>          <int>
##  1 hillary   clinton          663
##  2 donald    trump            172
##  3 african   american         164
##  4 american  people           119
##  5 trump     administration   112
##  6 hillary   clinton's        104
##  7 trade     deals            102
##  8 november  8th               91
##  9 middle    east              88
## 10 president obama             87
## # ... with 14,247 more rows
```

Now let us unite these bigrams again so that we can plot it. 


```r
Trump_bigrams_final<-Trump_bigrams_sep%>% unite(bigram,word1,word2,sep = " ")
Trump_bigrams_final
```

```
## # A tibble: 14,257 x 2
##    bigram                   n
##  * <chr>                <int>
##  1 hillary clinton        663
##  2 donald trump           172
##  3 african american       164
##  4 american people        119
##  5 trump administration   112
##  6 hillary clinton's      104
##  7 trade deals            102
##  8 november 8th            91
##  9 middle east             88
## 10 president obama         87
## # ... with 14,247 more rows
```
…
